Reciever Reference Game: Yoked Participants
…
## # A tibble: 2  4
##   receiverCorrect  avgDist avgNeighbors     n
##             <dbl>    <dbl>        <dbl> <int>
## 1               0 1.593750     2.062500    32
## 2               1 1.283333     2.016667    60

## Source: local data frame [92 x 9]
## Groups: subID, condition, closestExposure, gameClosest [48]
## 
##    condition closestExposure subID targetLabel typedLabel gameClosest
##        <chr>           <int> <chr>       <chr>      <chr>       <chr>
## 1     100_30               4     2       kreeb      kreeg       kreeb
## 2     100_30               2     2         kiv        vic         kiv
## 3     100_30               2     2        manu      mannu        manu
## 4     100_30               4     2       kreeb      kreeg       kreeb
## 5     100_30               2     2        manu      mannu        manu
## 6     100_30               2     2         kiv        vic         kiv
## 7     100_30               1    12     blicket     bicket     blicket
## 8     100_30               1    12     blicket     bicket     blicket
## 9      80_50               4    55         kiv        kiz         kiv
## 10     80_50               4    55         kiv        kiz         kiv
## # ... with 82 more rows, and 3 more variables: minDist <dbl>,
## #   n_Close <int>, clickedLabel <chr>
…
